set,epochs,activ,hash,num_ex,batch,LR,regular,momentum,load_time,train_time,accuracy,model_weight,date
0,5,sigmoid,8192,5000,39995,5,0,0,353,59944,{0.162,0.663,0.664,0.714,0.712,0.738,},{1,3,-47,-14,-64,-24,},Tue Nov 17 14:55:50 2020
0,5,sigmoid,8192,5000,39995,5,0,0.9,341,59763,{0.162,0.663,0.695,0.733,0.762,0.775,},{1,3,-72,-103,-146,-169,},Tue Nov 17 14:57:07 2020

0,5,sigmoid,8192,39995,39995,5,0,0,4373,804664,{0.1538,0.663,0.6562,0.7171,0.7006,0.7453,},{1,3,-50,-10,-68,-25,},Tue Nov 17 20:39:20 2020
0,5,sigmoid,8192,39995,39995,5,0,0.9,4359,801009,{0.1538,0.663,0.6743,0.7427,0.7733,0.7938,},{1,3,-75,-107,-143,-165,},Tue Nov 17 20:52:55 2020
0,5,sigmoid,8192,39995,39995,5,0,0.95,4340,799356,{0.1538,0.663,0.6775,0.743,0.774,0.7938,},{1,3,-76,-114,-154,-184,},Tue Nov 17 21:06:29 2020
0,5,sigmoid,8192,39995,39995,5,0,0.8,4394,808627,{0.1538,0.663,0.6713,0.7401,0.7705,0.7956,},{1,3,-73,-93,-124,-133,},Tue Nov 17 21:20:12 2020
0,5,sigmoid,8192,39995,39995,3.5,0,0,4341,812794,{0.1538,0.6578,0.6823,0.7214,0.7371,0.7542,},{1,3,-25,-8,-36,-20,},Tue Nov 17 21:33:59 2020
0,5,sigmoid,8192,39995,39995,3.5,0,0.9,4347,808731,{0.1538,0.6578,0.6886,0.7416,0.7643,0.7849,},{1,3,-41,-64,-92,-115,},Tue Nov 17 21:47:42 2020
0,5,sigmoid,8192,39995,39995,3.5,0,0.95,4395,839331,{0.1538,0.6578,0.6897,0.7417,0.7643,0.784,},{1,3,-42,-68,-100,-129,},Tue Nov 17 22:01:56 2020
0,5,sigmoid,8192,39995,39995,3.5,0,0.8,4489,810500,{0.1538,0.6578,0.6873,0.7413,0.7647,0.7848,},{1,3,-40,-56,-79,-91,},Tue Nov 17 22:15:42 2020
0,5,sigmoid,8192,39995,39995,7.5,0,0,4374,826948,{0.1538,0.6639,0.6257,0.6555,0.5714,0.6688,},{1,4,-101,-12,-155,-74,},Tue Nov 17 22:29:43 2020
0,5,sigmoid,8192,39995,39995,7.5,0,0.9,4437,826712,{0.1538,0.6639,0.6546,0.7369,0.7647,0.7931,},{1,4,-145,-182,-255,-277,},Tue Nov 17 22:43:44 2020
0,5,sigmoid,8192,39995,39995,7.5,0,0.95,4605,814502,{0.1538,0.6639,0.6575,0.7395,0.7688,0.7946,},{1,4,-147,-194,-267,-301,},Tue Nov 17 22:57:34 2020
0,5,sigmoid,8192,39995,39995,7.5,0,0.8,4343,827222,{0.1538,0.6639,0.6507,0.7296,0.7497,0.7883,},{1,4,-141,-159,-236,-246,},Tue Nov 17 23:11:36 2020
0,5,sigmoid,8192,39995,39995,1.5,0,0,4353,822202,{0.1538,0.6312,0.688,0.6997,0.7102,0.7193,},{1,2,-1,-3,-7,-9,},Tue Nov 17 23:25:32 2020
0,5,sigmoid,8192,39995,39995,1.5,0,0.9,4360,819638,{0.1538,0.6312,0.6983,0.7128,0.7298,0.748,},{1,2,-7,-17,-31,-46,},Tue Nov 17 23:39:26 2020
0,5,sigmoid,8192,39995,39995,1.5,0,0.95,4339,803160,{0.1538,0.6312,0.6989,0.7134,0.7298,0.7477,},{1,2,-7,-18,-34,-52,},Tue Nov 17 23:53:04 2020
0,5,sigmoid,8192,39995,39995,1.5,0,0.8,4280,792162,{0.1538,0.6312,0.6985,0.7122,0.7286,0.7465,},{1,2,-6,-15,-26,-38,},Wed Nov 18 00:06:30 2020
0,5,sigmoid,8192,39995,39995,9.5,0,0,4327,794021,{0.1538,0.6649,0.6002,0.6131,0.4965,0.6629,},{1,5,-148,-10,-283,-219,},Wed Nov 18 00:19:59 2020
0,5,sigmoid,8192,39995,39995,9.5,0,0.8,4359,786655,{0.1538,0.6649,0.6396,0.7284,0.7159,0.7626,},{1,5,-204,-213,-339,-402,},Wed Nov 18 00:33:20 2020
0,5,sigmoid,8192,39995,39995,9.5,0,0.75,4260,786333,{0.1538,0.6649,0.6369,0.7195,0.694,0.7473,},{1,5,-201,-198,-338,-408,},Wed Nov 18 00:46:40 2020
0,5,sigmoid,8192,39995,39995,9.5,0,0.6,4274,805134,{0.1538,0.6649,0.6254,0.6932,0.6456,0.7052,},{1,5,-192,-152,-347,-429,},Wed Nov 18 01:00:20 2020
0,5,wide,8192,39995,39995,5,0,0,4342,790035,{0.1538,0.6642,0.7036,0.7141,0.7258,0.737,},{1,-92,-77,-90,-96,-99,},Wed Nov 18 15:36:34 2020
0,5,wide,8192,39995,39995,5,0,0.9,4352,806270,{0.1538,0.6642,0.5331,0.3573,0.1984,0.2039,},{1,-92,2,-18458470,-2147483648,-2147483648,},Wed Nov 18 15:50:15 2020
0,5,wide,8192,39995,39995,5,0,0.95,4351,801571,{0.1538,0.6642,0.5167,0.2375,0.1984,0.2039,},{1,-92,16,-42671194,-2147483648,-2147483648,},Wed Nov 18 16:03:51 2020
0,5,wide,8192,39995,39995,5,0,0.8,4424,802371,{0.1538,0.6642,0.5654,0.5494,0.1984,0.2039,},{1,-92,-20,-3132942,-2147483648,-2147483648,},Wed Nov 18 16:17:28 2020
0,5,wide,8192,39995,39995,3.5,0,0,4441,836130,{0.1538,0.6594,0.694,0.7033,0.715,0.7231,},{1,-63,-73,-80,-85,-90,},Wed Nov 18 16:31:39 2020
0,5,wide,8192,39995,39995,3.5,0,0.9,4363,807152,{0.1538,0.6594,0.6978,0.7171,0.7172,0.7495,},{1,-63,-86,-119,-136,-139,},Wed Nov 18 16:45:20 2020
0,5,wide,8192,39995,39995,3.5,0,0.95,4772,833896,{0.1538,0.6594,0.6883,0.7151,0.2196,0.6335,},{1,-63,-86,-132,1636,-2147483648,},Wed Nov 18 16:59:29 2020
0,5,wide,8192,39995,39995,3.5,0,0.8,4378,804848,{0.1538,0.6594,0.7006,0.7166,0.7271,0.7482,},{1,-63,-86,-109,-129,-134,},Wed Nov 18 17:13:08 2020
0,5,wide,8192,39995,39995,7.5,0,0,4543,804718,{0.1538,0.6663,0.608,0.6147,0.1984,0.2039,},{1,-139,-21,-9302,-2147483648,-2147483648,},Wed Nov 18 17:26:48 2020
0,5,wide,8192,39995,39995,7.5,0,0.9,4441,806833,{0.1538,0.6663,0.218,0.2039,0.1984,0,},{1,-139,1203,-2147483648,-2147483648,-2147483648,},Wed Nov 18 17:40:29 2020
0,5,wide,8192,39995,39995,7.5,0,0.95,4352,847947,{0.1538,0.6663,0.2168,0.2039,0.1984,0,},{1,-139,1381,-2147483648,-2147483648,-2147483648,},Wed Nov 18 17:54:51 2020
0,5,wide,8192,39995,39995,7.5,0,0.8,4308,805500,{0.1538,0.6663,0.226,0.2039,0.1984,0,},{1,-139,899,-2147483648,-2147483648,-2147483648,},Wed Nov 18 18:08:31 2020
0,5,sigmoid,8192,39995,39995,5,0.1,0,4370,810728,{0.1538,0.6636,0.6474,0.6983,0.6539,0.7103,},{1,3,-51,0,-73,-11,},Wed Nov 18 18:22:16 2020
0,5,sigmoid,8192,39995,39995,5,0.1,0.8,4297,924369,{0.1538,0.6636,0.6583,0.7278,0.7552,0.7878,},{1,3,-74,-74,-109,-95,},Wed Nov 18 18:37:56 2020
0,5,sigmoid,8192,39995,39995,5,0.01,0.8,4674,847693,{0.1538,0.6631,0.6705,0.7399,0.7698,0.7954,},{1,3,-73,-91,-122,-128,},Wed Nov 18 18:52:18 2020
0,5,sigmoid,8192,39995,39995,5,0.005,0.8,4494,800555,{0.1538,0.6631,0.6711,0.7399,0.7702,0.7957,},{1,3,-73,-92,-123,-130,},Wed Nov 18 19:05:54 2020
0,5,wide,8192,39995,39995,5,0.1,0.8,4409,797119,{0.1538,0.6643,0.5542,0.5326,0.1984,0.2039,},{1,-92,-4,-3252751,-2147483648,-2147483648,},Wed Nov 18 19:19:25 2020
0,5,sigmoid,8192,39995,39995,7.5,0.1,0.95,4362,812714,{0.1538,0.6647,0.6424,0.7246,0.7377,0.7832,},{1,4,-148,-157,-244,-260,},Wed Nov 18 19:33:12 2020
0,5,sigmoid,8192,39995,39995,7.5,0.05,0.95,4367,803483,{0.1538,0.6647,0.65,0.7339,0.7583,0.7907,},{1,4,-148,-176,-252,-273,},Wed Nov 18 19:46:50 2020
0,5,sigmoid,8192,39995,39995,7.5,0.01,0.95,4305,812213,{0.1538,0.6638,0.6552,0.7385,0.7665,0.7947,},{1,4,-147,-190,-264,-295,},Wed Nov 18 20:00:37 2020
0,5,sigmoid,8192,39995,39995,7.5,0.005,0.95,4369,817063,{0.1538,0.6639,0.6563,0.7388,0.7679,0.7946,},{1,4,-147,-192,-266,-298,},Wed Nov 18 20:14:28 2020
0,5,wide,8192,39995,39995,7.5,0.1,0.95,4341,830725,{0.1538,0.6667,0.2123,0.2039,0.1984,0,},{1,-139,1405,-2147483648,-2147483648,-2147483648,},Wed Nov 18 20:28:34 2020

0,5,wide,8192,39995,39995,2.5,0,0,4872,905798,{0.1538,0.6512,0.6848,0.6981,0.7042,0.7122,},{1,-45,-62,-71,-77,-82,},Wed Nov 18 20:43:55 2020
0,5,wide,8192,39995,39995,2.5,0,0.9,4397,811201,{0.1538,0.6512,0.6934,0.7071,0.7202,0.7312,},{1,-45,-82,-104,-121,-137,},Wed Nov 18 20:57:41 2020
0,5,wide,8192,39995,39995,2.5,0,0.95,4315,844966,{0.1538,0.6512,0.6934,0.7076,0.7201,0.7322,},{1,-45,-83,-107,-127,-144,},Wed Nov 18 21:12:01 2020
0,5,wide,8192,39995,39995,2.5,0,0.8,4440,828143,{0.1538,0.6512,0.6926,0.7059,0.7193,0.7289,},{1,-45,-80,-99,-112,-124,},Wed Nov 18 21:26:04 2020
0,5,wide,8192,39995,39995,3.5,0.1,0,4406,807351,{0.1538,0.6606,0.6961,0.7052,0.7143,0.7225,},{1,-64,-67,-71,-75,-77,},Wed Nov 18 21:39:46 2020
0,5,wide,8192,39995,39995,3.5,0.1,0.9,4393,830454,{0.1538,0.6606,0.6896,0.7154,0.6365,0.6497,},{1,-64,-74,-106,-60,-936303,},Wed Nov 18 21:53:51 2020
0,5,wide,8192,39995,39995,3.5,0.1,0.95,4493,828353,{0.1538,0.6606,0.6743,0.7109,0.1984,0.6303,},{1,-64,-74,-122,12530,-2147483648,},Wed Nov 18 22:07:54 2020
0,5,wide,8192,39995,39995,3.5,0.1,0.8,4371,821918,{0.1538,0.6606,0.7025,0.7165,0.7284,0.7493,},{1,-64,-75,-95,-108,-107,},Wed Nov 18 22:21:50 2020
0,5,wide,8192,39995,39995,4,0,0,4324,931537,{0.1538,0.6607,0.6959,0.7072,0.7185,0.7262,},{1,-73,-76,-83,-89,-94,},Wed Nov 18 22:37:36 2020
0,5,wide,8192,39995,39995,4,0,0.9,4372,827206,{0.1538,0.6607,0.6377,0.6236,0.1984,0.2039,},{1,-73,-75,-4233,-2147483648,-2147483648,},Wed Nov 18 22:51:37 2020
0,5,wide,8192,39995,39995,4,0,0.95,4534,839150,{0.1538,0.6607,0.6301,0.6233,0.1984,0.2039,},{1,-73,-73,-11753,-2147483648,-2147483648,},Wed Nov 18 23:05:51 2020
0,5,wide,8192,39995,39995,4,0,0.8,4372,811514,{0.1538,0.6607,0.6516,0.63,0.1984,0.2257,},{1,-73,-79,-514,-2147483648,-2147483648,},Wed Nov 18 23:19:37 2020
