<<<<<<< HEAD
n,depth,threads,train,test,tile_size,learning_rate,approx,epoch_time,predict_time,accuracy,sum_weights,total_time,time_of_completion
=======
>>>>>>> 903893b (add results)
14,6,8,1000,200,500,3.300000,wide,0.003300,{2819,1148,},{388,73,},{0.574000,0.616000,},{0.416504,-67.102295,-72.816406,},4481,Fri Oct  9 20:53:16 2020
14,6,8,2000,400,500,6.600000,wide,0.003300,{5907,2350,},{385,62,},{0.602000,0.492000,},{0.128662,-137.688721,-31.083496,},8758,Fri Oct  9 23:19:15 2020
14,6,8,3000,600,500,9.900000,wide,0.003300,{8780,3517,},{881,144,},{0.633000,0.304000,},{-0.114258,-206.680664,165.267090,},13415,Sat Oct 10 03:02:51 2020
14,6,8,5000,1000,500,15.000000,wide,0.003000,{15062,5446,},{817,112,},{0.656000,0.222000,},{-3.412598,-309.302002,1205.871338,},21524,Sat Oct 10 09:01:35 2020
14,6,8,5000,1000,500,16.500000,wide,0.003300,{14861,5727,},{947,127,},{0.654000,0.221000,},{-1.308838,-338.528809,861.926758,},21752,Sat Oct 10 15:04:09 2020
14,6,8,5000,1000,500,18.000000,wide,0.003600,{14897,5545,},{888,111,},{0.656000,0.217000,},{0.730469,-371.833984,3975.310059,},21530,Sat Oct 10 21:02:59 2020
14,6,8,25000,5000,2500,82.500000,wide,0.003300,{75011,28804,},{4421,609,},{0.630800,0.209600,},{0.841064,-1674.000000,232220249.035399,},109214,Mon Oct 12 03:23:14 2020
14,6,8,25000,5000,2500,70.000000,wide,0.002800,{74534,28210,},{4163,590,},{0.637400,0.209200,},{1.079346,-1420.458252,102112536.777832,},107868,Wed Oct 14 02:34:01 2020
