set,epochs,batch_size,learn_rate,load_time,train_time,accuracy_half,accuracy_end
0,10,256,0.25,5243,1808262,0.8661,0.8723
1,10,256,0.25,5411,1808780,0.8618,0.8675
2,10,256,0.25,5276,1818656,0.8624,0.8715
3,10,256,0.25,5392,1860138,0.8591,0.8662

0,10,1001,2.5,5305,1902522,0.8765,0.8808
0,10,1000,2.5,5335,1850044,0.8762,0.8808
0,10,32,0.075,5399,1661858,0.8765,0.8798
0,10,256,0.25,5530,1837822,0.865,0.8721
1,10,1000,2.5,5346,1937107,0.8731,0.8785
1,10,32,0.075,5474,1649284,0.8724,0.8784
1,10,256,0.25,5400,1820410,0.8622,0.868
2,10,1000,2.5,5460,1893448,0.8773,0.8819
2,10,32,0.075,5309,1633512,0.8769,0.8813
2,10,256,0.25,5360,1921442,0.8621,0.8702
3,10,1000,2.5,6184,2006204,0.8721,0.8767
3,10,32,0.075,5392,1657192,0.8717,0.8762
3,10,256,0.25,5302,1888592,0.8588,0.867
4,10,1000,2.5,5362,1946556,0.8749,0.8801
4,10,32,0.075,5308,1771484,0.8752,0.8807
4,10,256,0.25,5355,1820640,0.8637,0.8704